%YAML 1.1
%TAG !u! tag:unity3d.com,2011:
--- !u!1045 &1
EditorBuildSettings:
  m_ObjectHideFlags: 0
  serializedVersion: 2
  m_Scenes:
  - enabled: 1
    path: Assets/Scenes/Main.unity
    guid: 4307d568b380f7b41b62aed43deb27c9
  - enabled: 1
    path: Assets/Scenes/Stage1.unity
    guid: 9fc0d4010bbf28b4594072e72b8655ab
  - enabled: 1
    path: Assets/Scenes/Stage2.unity
    guid: 1d3cadf35455b8e498d0881300874efc
  - enabled: 1
    path: Assets/Scenes/Stage3.unity
    guid: 6597952a188c2f141aa799063f5b9842
  - enabled: 1
    path: Assets/Scenes/Ending.unity
    guid: 2181a71c220153147b2c173f0f280e30
  m_configObjects: {}
